\relax 
\providecommand\hyper@newdestlabel[2]{}
\providecommand\HyperFirstAtBeginDocument{\AtBeginDocument}
\HyperFirstAtBeginDocument{\ifx\hyper@anchor\@undefined
\global\let\oldcontentsline\contentsline
\gdef\contentsline#1#2#3#4{\oldcontentsline{#1}{#2}{#3}}
\global\let\oldnewlabel\newlabel
\gdef\newlabel#1#2{\newlabelxx{#1}#2}
\gdef\newlabelxx#1#2#3#4#5#6{\oldnewlabel{#1}{{#2}{#3}}}
\AtEndDocument{\ifx\hyper@anchor\@undefined
\let\contentsline\oldcontentsline
\let\newlabel\oldnewlabel
\fi}
\fi}
\global\let\hyper@last\relax 
\gdef\HyperFirstAtBeginDocument#1{#1}
\providecommand\HyField@AuxAddToFields[1]{}
\providecommand\HyField@AuxAddToCoFields[2]{}
\providecommand \oddpage@label [2]{}
\@writefile{toc}{\contentsline {chapter}{Abstract}{2}{Doc-Start}}
\@writefile{toc}{\contentsline {chapter}{Acknowledgements}{3}{Doc-Start}}
\citation{vazquez2015time}
\citation{vazquez2015time}
\citation{Goodfellow-et-al-2016}
\citation{vazquez2015time}
\citation{lstm_model}
\citation{Goodfellow-et-al-2016}
\citation{Goodfellow-et-al-2016}
\@writefile{toc}{\contentsline {chapter}{\numberline {1}Gi\IeC {\'\ohorn }i thi\IeC {\d \ecircumflex }u \IeC {\dj }\IeC {\`\ecircumflex } t\IeC {\`a}i}{10}{chapter.1}}
\@writefile{lof}{\addvspace {10\p@ }}
\@writefile{lot}{\addvspace {10\p@ }}
\@writefile{loa}{\addvspace {10\p@ }}
\@writefile{toc}{\contentsline {section}{\numberline {1.1}\IeC {\DJ }\IeC {\d \abreve }t v\IeC {\'\acircumflex }n \IeC {\dj }\IeC {\`\ecircumflex } b\IeC {\`a}i to\IeC {\'a}n}{10}{section.1.1}}
\@writefile{toc}{\contentsline {section}{\numberline {1.2}B\IeC {\'\ocircumflex } c\IeC {\d u}c \IeC {\dj }\IeC {\`\ocircumflex } \IeC {\'a}n}{12}{section.1.2}}
\@writefile{toc}{\contentsline {chapter}{\numberline {2}T\IeC {\h \ocircumflex }ng quan c\IeC {\'a}c nghi\IeC {\^e}n c\IeC {\'\uhorn }u v\IeC {\`a} c\IeC {\'a}c ki\IeC {\'\ecircumflex }n th\IeC {\'\uhorn }c c\IeC {\ohorn } s\IeC {\h \ohorn }}{13}{chapter.2}}
\@writefile{lof}{\addvspace {10\p@ }}
\@writefile{lot}{\addvspace {10\p@ }}
\@writefile{loa}{\addvspace {10\p@ }}
\newlabel{ch:background}{{2}{13}{Tổng quan các nghiên cứu và các kiến thức cơ sở}{chapter.2}{}}
\@writefile{toc}{\contentsline {section}{\numberline {2.1}\IeC {\DJ }i\IeC {\d \ecircumflex }n to\IeC {\'a}n \IeC {\dj }\IeC {\'a}m m\IeC {\^a}y}{13}{section.2.1}}
\citation{vazquez2015time}
\citation{vazquez2015time}
\@writefile{lof}{\contentsline {figure}{\numberline {2.1}{\ignorespaces C\IeC {\'a}c m\IeC {\^o} h\IeC {\`\i }nh d\IeC {\d i}ch v\IeC {\d u} trong \IeC {\DJ }i\IeC {\d \ecircumflex }n to\IeC {\'a}n \IeC {\dj }\IeC {\'a}m m\IeC {\^a}y. Ngu\IeC {\`\ocircumflex }n \nobreakspace  {}\cite  {vazquez2015time}\relax }}{15}{figure.caption.4}}
\providecommand*\caption@xref[2]{\@setref\relax\@undefined{#1}}
\newlabel{fig:service_model}{{2.1}{15}{Các mô hình dịch vụ trong Điện toán đám mây. Nguồn ~\cite {vazquez2015time}\relax }{figure.caption.4}{}}
\citation{vazquez2015time}
\citation{vazquez2015time}
\@writefile{toc}{\contentsline {section}{\numberline {2.2}B\IeC {\`a}i to\IeC {\'a}n t\IeC {\d \uhorn } \IeC {\dj }\IeC {\d \ocircumflex }ng m\IeC {\h \ohorn } r\IeC {\d \ocircumflex }ng}{17}{section.2.2}}
\@writefile{lof}{\contentsline {figure}{\numberline {2.2}{\ignorespaces S\IeC {\d \uhorn } cung c\IeC {\'\acircumflex }p t\IeC {\`a}i nguy\IeC {\^e}n theo y\IeC {\^e}u c\IeC {\`\acircumflex }u. Ngu\IeC {\`\ocircumflex }n \nobreakspace  {}\cite  {vazquez2015time}\relax }}{18}{figure.caption.5}}
\newlabel{fig:autoscaling_problem}{{2.2}{18}{Sự cung cấp tài nguyên theo yêu cầu. Nguồn ~\cite {vazquez2015time}\relax }{figure.caption.5}{}}
\citation{Goodfellow-et-al-2016}
\citation{Goodfellow-et-al-2016}
\@writefile{lof}{\contentsline {figure}{\numberline {2.3}{\ignorespaces Ph\IeC {\uhorn }\IeC {\ohorn }ng ph\IeC {\'a}p chu k\IeC {\`y}. Ngu\IeC {\`\ocircumflex }n \cite  {Goodfellow-et-al-2016}\relax }}{19}{figure.caption.6}}
\newlabel{fig:perodicity}{{2.3}{19}{Phương pháp chu kỳ. Nguồn \cite {Goodfellow-et-al-2016}\relax }{figure.caption.6}{}}
\citation{vazquez2015time}
\citation{vazquez2015time}
\@writefile{lof}{\contentsline {figure}{\numberline {2.4}{\ignorespaces Ph\IeC {\uhorn }\IeC {\ohorn }ng ph\IeC {\'a}p s\IeC {\h \uhorn } d\IeC {\d u}ng ng\IeC {\uhorn }\IeC {\~\ohorn }ng. \relax }}{20}{figure.caption.7}}
\newlabel{fig:Threshold}{{2.4}{20}{Phương pháp sử dụng ngưỡng. \relax }{figure.caption.7}{}}
\citation{vazquez2015time}
\citation{7725658}
\citation{Hochreiter:1997:LSM:1246443.1246450}
\citation{KUMAR2018676}
\citation{TRAN2017365}
\@writefile{lof}{\contentsline {figure}{\numberline {2.5}{\ignorespaces Ph\IeC {\uhorn }\IeC {\ohorn }ng ph\IeC {\'a}p d\IeC {\d \uhorn } \IeC {\dj }o\IeC {\'a}n tr\IeC {\uhorn }\IeC {\'\ohorn }c l\IeC {\uhorn }\IeC {\d \ohorn }ng t\IeC {\`a}i nguy\IeC {\^e}n s\IeC {\h \uhorn } d\IeC {\d u}ng. Ngu\IeC {\`\ocircumflex }n \nobreakspace  {}\cite  {vazquez2015time}\relax }}{21}{figure.caption.8}}
\newlabel{fig:predic_resource}{{2.5}{21}{Phương pháp dự đoán trước lượng tài nguyên sử dụng. Nguồn ~\cite {vazquez2015time}\relax }{figure.caption.8}{}}
\@writefile{toc}{\contentsline {section}{\numberline {2.3}C\IeC {\'a}c ph\IeC {\uhorn }\IeC {\ohorn }ng ph\IeC {\'a}p d\IeC {\d \uhorn } \IeC {\dj }o\IeC {\'a}n chu\IeC {\~\ocircumflex }i th\IeC {\`\ohorn }i gian}{21}{section.2.3}}
\@writefile{toc}{\contentsline {subsection}{\numberline {2.3.1}T\IeC {\h \ocircumflex }ng quan}{21}{subsection.2.3.1}}
\citation{CHAKRABORTY1992961}
\citation{915346}
\citation{Yu:2004:EFS:1005332.1044700}
\citation{Vergara2014}
\citation{fuzzyorigin}
\citation{Egrioglu200910589}
\citation{TRAN2017365}
\@writefile{toc}{\contentsline {subsection}{\numberline {2.3.2}C\IeC {\'a}c ph\IeC {\uhorn }\IeC {\ohorn }ng ph\IeC {\'a}p tuy\IeC {\'\ecircumflex }n t\IeC {\'\i }nh}{23}{subsection.2.3.2}}
\@writefile{toc}{\contentsline {subsubsection}{\numberline {2.3.2.1}M\IeC {\^o} h\IeC {\`\i }nh t\IeC {\d \uhorn } h\IeC {\`\ocircumflex }i quy (Auto Regressive)}{23}{subsubsection.2.3.2.1}}
\@writefile{toc}{\contentsline {subsubsection}{\numberline {2.3.2.2}M\IeC {\^o} h\IeC {\`\i }nh trung b\IeC {\`\i }nh tr\IeC {\uhorn }\IeC {\d \ohorn }t (Moving average)}{24}{subsubsection.2.3.2.2}}
\@writefile{lof}{\contentsline {figure}{\numberline {2.6}{\ignorespaces M\IeC {\^o} h\IeC {\`\i }nh m\IeC {\d a}ng n\IeC {\ohorn }-ron truy\IeC {\`\ecircumflex }n th\IeC {\h \abreve }ng v\IeC {\'\ohorn }i m\IeC {\d \ocircumflex }t t\IeC {\`\acircumflex }ng \IeC {\h \acircumflex }n\relax }}{25}{figure.caption.9}}
\newlabel{fig:ANN}{{2.6}{25}{Mô hình mạng nơ-ron truyền thẳng với một tầng ẩn\relax }{figure.caption.9}{}}
\@writefile{toc}{\contentsline {subsubsection}{\numberline {2.3.2.3}M\IeC {\^o} h\IeC {\`\i }nh l\IeC {\`a}m m\IeC {\d i}n theo h\IeC {\`a}m s\IeC {\'\ocircumflex } m\IeC {\~u}}{25}{subsubsection.2.3.2.3}}
\@writefile{toc}{\contentsline {subsection}{\numberline {2.3.3}M\IeC {\^o} h\IeC {\`\i }nh m\IeC {\d a}ng n\IeC {\ohorn }-ron nh\IeC {\^a}n t\IeC {\d a}o}{26}{subsection.2.3.3}}
\citation{lstm_model}
\citation{lstm_model}
\@writefile{loa}{\contentsline {algocf}{\numberline {1}{\ignorespaces Gi\IeC {\h a}i thu\IeC {\d \acircumflex }t lan truy\IeC {\`\ecircumflex }n ng\IeC {\uhorn }\IeC {\d \ohorn }c \IeC {\'a}p d\IeC {\d u}ng cho m\IeC {\d a}ng n\IeC {\ohorn }-ron truy\IeC {\`\ecircumflex }n th\IeC {\h \abreve }ng m\IeC {\d \ocircumflex }t t\IeC {\`\acircumflex }ng \IeC {\h \acircumflex }n\relax }}{27}{algocf.1}}
\newlabel{alg:algoBp}{{1}{27}{Mô hình mạng nơ-ron nhân tạo}{algocf.1}{}}
\citation{Goodfellow-et-al-2016}
\citation{Goodfellow-et-al-2016}
\@writefile{lof}{\contentsline {figure}{\numberline {2.7}{\ignorespaces M\IeC {\d a}ng n\IeC {\ohorn }-ron h\IeC {\`\ocircumflex }i quy, Ngu\IeC {\`\ocircumflex }n \nobreakspace  {}\cite  {lstm_model} \relax }}{28}{figure.caption.11}}
\newlabel{fig:RNN}{{2.7}{28}{Mạng nơ-ron hồi quy, Nguồn ~\cite {lstm_model} \relax }{figure.caption.11}{}}
\@writefile{toc}{\contentsline {subsection}{\numberline {2.3.4}Ph\IeC {\uhorn }\IeC {\ohorn }ng ph\IeC {\'a}p h\IeC {\d o}c s\IeC {\^a}u}{28}{subsection.2.3.4}}
\@writefile{toc}{\contentsline {subsubsection}{\numberline {2.3.4.1}Ph\IeC {\uhorn }\IeC {\ohorn }ng ph\IeC {\'a}p m\IeC {\d a}ng n\IeC {\ohorn }-ron h\IeC {\`\ocircumflex }i quy}{28}{subsubsection.2.3.4.1}}
\citation{Goodfellow-et-al-2016}
\citation{Goodfellow-et-al-2016}
\@writefile{lof}{\contentsline {figure}{\numberline {2.8}{\ignorespaces \IeC {\DJ }\IeC {\`\ocircumflex } th\IeC {\d i} t\IeC {\'\i }nh to\IeC {\'a}n \IeC {\dj }\IeC {\h \ecircumflex } t\IeC {\'\i }nh ra l\IeC {\~\ocircumflex }i hu\IeC {\'\acircumflex }n luy\IeC {\d \ecircumflex }n c\IeC {\h u}a m\IeC {\d a}ng h\IeC {\`\ocircumflex }i quy, Ngu\IeC {\`\ocircumflex }n \nobreakspace  {}\cite  {Goodfellow-et-al-2016} \relax }}{29}{figure.caption.12}}
\newlabel{fig:RNN}{{2.8}{29}{Đồ thị tính toán để tính ra lỗi huấn luyện của mạng hồi quy, Nguồn ~\cite {Goodfellow-et-al-2016} \relax }{figure.caption.12}{}}
\@writefile{lof}{\contentsline {figure}{\numberline {2.9}{\ignorespaces  M\IeC {\^o} h\IeC {\`\i }nh m\IeC {\d a}ng LSTM. Ngu\IeC {\`\ocircumflex }n \nobreakspace  {}\cite  {Goodfellow-et-al-2016}\relax }}{30}{figure.caption.13}}
\newlabel{fig:LSTM}{{2.9}{30}{Mô hình mạng LSTM. Nguồn ~\cite {Goodfellow-et-al-2016}\relax }{figure.caption.13}{}}
\@writefile{toc}{\contentsline {subsubsection}{\numberline {2.3.4.2}M\IeC {\d a}ng Long Short Term Memory Neural Network}{30}{subsubsection.2.3.4.2}}
\newlabel{eq:lstm1}{{2.8}{31}{Mạng Long Short Term Memory Neural Network}{equation.2.3.8}{}}
\newlabel{eq:lstm2}{{2.9}{31}{Mạng Long Short Term Memory Neural Network}{equation.2.3.9}{}}
\@writefile{toc}{\contentsline {subsection}{\numberline {2.3.5}Ph\IeC {\uhorn }\IeC {\ohorn }ng ph\IeC {\'a}p chu\IeC {\~\ocircumflex }i th\IeC {\`\ohorn }i gian m\IeC {\`\ohorn }}{31}{subsection.2.3.5}}
\newlabel{fuzzy_definition}{{2.3.5}{31}{Phương pháp chuỗi thời gian mờ}{subsection.2.3.5}{}}
\@writefile{toc}{\contentsline {section}{\numberline {2.4}Ph\IeC {\uhorn }\IeC {\ohorn }ng ph\IeC {\'a}p ph\IeC {\^a}n t\IeC {\'\i }ch m\IeC {\'\ocircumflex }i t\IeC {\uhorn }\IeC {\ohorn }ng quan nhi\IeC {\`\ecircumflex }u chi\IeC {\`\ecircumflex }u}{33}{section.2.4}}
\newlabel{eq:su}{{2.21}{34}{Phương pháp phân tích mối tương quan nhiều chiều}{equation.2.4.21}{}}
\@writefile{toc}{\contentsline {chapter}{\numberline {3}M\IeC {\^o} h\IeC {\`\i }nh \IeC {\dj }\IeC {\`\ecircumflex } xu\IeC {\'\acircumflex }t}{36}{chapter.3}}
\@writefile{lof}{\addvspace {10\p@ }}
\@writefile{lot}{\addvspace {10\p@ }}
\@writefile{loa}{\addvspace {10\p@ }}
\newlabel{architecture}{{3}{36}{Mô hình đề xuất}{chapter.3}{}}
\newlabel{ch:conclusions}{{3}{36}{Mô hình đề xuất}{chapter.3}{}}
\@writefile{toc}{\contentsline {section}{\numberline {3.1}T\IeC {\h \ocircumflex }ng quan m\IeC {\^o} h\IeC {\`\i }nh}{36}{section.3.1}}
\@writefile{lof}{\contentsline {figure}{\numberline {3.1}{\ignorespaces  Ki\IeC {\'\ecircumflex }n tr\IeC {\'u}c t\IeC {\h \ocircumflex }ng quan c\IeC {\h u}a h\IeC {\d \ecircumflex } th\IeC {\'\ocircumflex }ng \relax }}{37}{figure.caption.14}}
\newlabel{fig:architecture}{{3.1}{37}{Kiến trúc tổng quan của hệ thống \relax }{figure.caption.14}{}}
\@writefile{toc}{\contentsline {section}{\numberline {3.2}Ti\IeC {\`\ecircumflex }n x\IeC {\h \uhorn } l\IeC {\'y} d\IeC {\~\uhorn } li\IeC {\d \ecircumflex }u}{37}{section.3.2}}
\@writefile{lof}{\contentsline {figure}{\numberline {3.2}{\ignorespaces  M\IeC {\'\uhorn }c \IeC {\dj }\IeC {\d \ocircumflex } ti\IeC {\^e}u th\IeC {\d u} CPU theo th\IeC {\`\ohorn }i gian c\IeC {\h u}a m\IeC {\d \ocircumflex }t job trong b\IeC {\d \ocircumflex } d\IeC {\~\uhorn } li\IeC {\d \ecircumflex }u Google trace \relax }}{38}{figure.caption.15}}
\newlabel{fig:cpu_trace}{{3.2}{38}{Mức độ tiêu thụ CPU theo thời gian của một job trong bộ dữ liệu Google trace \relax }{figure.caption.15}{}}
\@writefile{toc}{\contentsline {section}{\numberline {3.3}L\IeC {\d \uhorn }a ch\IeC {\d o}n \IeC {\dj }\IeC {\d \abreve }c tr\IeC {\uhorn }ng}{38}{section.3.3}}
\newlabel{feature_selection}{{3.3}{38}{Lựa chọn đặc trưng}{section.3.3}{}}
\@writefile{loa}{\contentsline {algocf}{\numberline {2}{\ignorespaces L\IeC {\d \uhorn }a ch\IeC {\d o}n c\IeC {\'a}c th\IeC {\^o}ng s\IeC {\'\ocircumflex } c\IeC {\'o} \IeC {\dj }\IeC {\d \ocircumflex } t\IeC {\uhorn }\IeC {\ohorn }ng quan cao\relax }}{39}{algocf.2}}
\newlabel{alg:feature_selection_algo}{{2}{39}{Lựa chọn đặc trưng}{algocf.2}{}}
\@writefile{toc}{\contentsline {section}{\numberline {3.4}Hu\IeC {\'\acircumflex }n luy\IeC {\d \ecircumflex }n m\IeC {\^o} h\IeC {\`\i }nh}{39}{section.3.4}}
\@writefile{lof}{\contentsline {figure}{\numberline {3.3}{\ignorespaces M\IeC {\^o} h\IeC {\`\i }nh LSTM \relax }}{40}{figure.caption.17}}
\newlabel{fig:LSTM_model}{{3.3}{40}{Mô hình LSTM \relax }{figure.caption.17}{}}
\@writefile{toc}{\contentsline {section}{\numberline {3.5}D\IeC {\d \uhorn } \IeC {\dj }o\IeC {\'a}n}{40}{section.3.5}}
\@writefile{loa}{\contentsline {algocf}{\numberline {3}{\ignorespaces MF-LSTM\relax }}{41}{algocf.3}}
\newlabel{alg:algototal}{{3}{41}{Huấn luyện mô hình}{algocf.3}{}}
\@writefile{loa}{\contentsline {algocf}{\numberline {4}{\ignorespaces M\IeC {\^o} h\IeC {\`\i }nh d\IeC {\d \uhorn } \IeC {\dj }o\IeC {\'a}n\relax }}{41}{algocf.4}}
\newlabel{alg:algoprediction}{{4}{41}{Dự đoán}{algocf.4}{}}
\@writefile{toc}{\contentsline {chapter}{\numberline {4}Th\IeC {\d \uhorn }c nghi\IeC {\d \ecircumflex }m v\IeC {\`a} \IeC {\dj }\IeC {\'a}nh gi\IeC {\'a}}{42}{chapter.4}}
\@writefile{lof}{\addvspace {10\p@ }}
\@writefile{lot}{\addvspace {10\p@ }}
\@writefile{loa}{\addvspace {10\p@ }}
\newlabel{ch:conclusions}{{4}{42}{Thực nghiệm và đánh giá}{chapter.4}{}}
\@writefile{toc}{\contentsline {section}{\numberline {4.1}C\IeC {\`a}i \IeC {\dj }\IeC {\d \abreve }t th\IeC {\d \uhorn }c nghi\IeC {\d \ecircumflex }m}{42}{section.4.1}}
\citation{Egrioglu200910589}
\@writefile{toc}{\contentsline {section}{\numberline {4.2}M\IeC {\`\ohorn } h\IeC {\'o}a d\IeC {\~\uhorn } li\IeC {\d \ecircumflex }u}{43}{section.4.2}}
\@writefile{lof}{\contentsline {figure}{\numberline {4.1}{\ignorespaces Chu\IeC {\~\ocircumflex }i th\IeC {\`\ohorn }i gian th\IeC {\d \uhorn }c t\IeC {\'\ecircumflex } v\IeC {\`a} chu\IeC {\~\ocircumflex }i th\IeC {\`\ohorn }i gian m\IeC {\`\ohorn } t\IeC {\uhorn }\IeC {\ohorn }ng \IeC {\'\uhorn }ng\relax }}{44}{figure.caption.20}}
\newlabel{fig:cpu_fuzzy}{{4.1}{44}{Chuỗi thời gian thực tế và chuỗi thời gian mờ tương ứng\relax }{figure.caption.20}{}}
\@writefile{toc}{\contentsline {section}{\numberline {4.3}L\IeC {\d \uhorn }a ch\IeC {\d o}n \IeC {\dj }\IeC {\d \abreve }c tr\IeC {\uhorn }ng}{44}{section.4.3}}
\@writefile{lof}{\contentsline {figure}{\numberline {4.2}{\ignorespaces Nonlinearity correlation\relax }}{45}{figure.caption.21}}
\newlabel{fig:correlation}{{4.2}{45}{Nonlinearity correlation\relax }{figure.caption.21}{}}
\@writefile{lot}{\contentsline {table}{\numberline {4.1}{\ignorespaces K\IeC {\'\ecircumflex }t qu\IeC {\h a} th\IeC {\d \uhorn }c nghi\IeC {\d \ecircumflex }m l\IeC {\d \uhorn }a ch\IeC {\d o}n \IeC {\dj }\IeC {\d \abreve }c tr\IeC {\uhorn }ng\relax }}{45}{table.caption.22}}
\newlabel{tab:feature_selection}{{4.1}{45}{Kết quả thực nghiệm lựa chọn đặc trưng\relax }{table.caption.22}{}}
\@writefile{toc}{\contentsline {section}{\numberline {4.4}D\IeC {\d \uhorn } \IeC {\dj }o\IeC {\'a}n}{46}{section.4.4}}
\@writefile{lot}{\contentsline {table}{\numberline {4.2}{\ignorespaces  D\IeC {\d \uhorn } \IeC {\dj }o\IeC {\'a}n CPU \relax }}{47}{table.caption.23}}
\newlabel{tab:cpu_predict}{{4.2}{47}{Dự đoán CPU \relax }{table.caption.23}{}}
\@writefile{lot}{\contentsline {table}{\numberline {4.3}{\ignorespaces  D\IeC {\d \uhorn } \IeC {\dj }o\IeC {\'a}n Memory \relax }}{47}{table.caption.24}}
\newlabel{tab:mem_predict}{{4.3}{47}{Dự đoán Memory \relax }{table.caption.24}{}}
\@writefile{lof}{\contentsline {figure}{\numberline {4.3}{\ignorespaces K\IeC {\'\ecircumflex }t qu\IeC {\h a} d\IeC {\d \uhorn } \IeC {\dj }o\IeC {\'a}n v\IeC {\'\ohorn }i sw=2 v\IeC {\`a} $\delta $ = 0.8\relax }}{47}{figure.caption.25}}
\newlabel{fig:thres08}{{4.3}{47}{Kết quả dự đoán với sw=2 và $\delta $ = 0.8\relax }{figure.caption.25}{}}
\@writefile{lof}{\contentsline {figure}{\numberline {4.4}{\ignorespaces K\IeC {\'\ecircumflex }t qu\IeC {\h a} d\IeC {\d \uhorn } \IeC {\dj }o\IeC {\'a}n v\IeC {\'\ohorn }i sw=2 v\IeC {\`a} $\delta $ = 0.45\relax }}{47}{figure.caption.26}}
\newlabel{fig:thres045}{{4.4}{47}{Kết quả dự đoán với sw=2 và $\delta $ = 0.45\relax }{figure.caption.26}{}}
\@writefile{lof}{\contentsline {figure}{\numberline {4.5}{\ignorespaces K\IeC {\'\ecircumflex }t qu\IeC {\h a} d\IeC {\d \uhorn } \IeC {\dj }o\IeC {\'a}n v\IeC {\'\ohorn }i sw=2 v\IeC {\`a} $\delta $ = 0.3\relax }}{48}{figure.caption.27}}
\newlabel{fig:thres03}{{4.5}{48}{Kết quả dự đoán với sw=2 và $\delta $ = 0.3\relax }{figure.caption.27}{}}
\@writefile{lof}{\contentsline {figure}{\numberline {4.6}{\ignorespaces K\IeC {\'\ecircumflex }t qu\IeC {\h a} d\IeC {\d \uhorn } \IeC {\dj }o\IeC {\'a}n v\IeC {\'\ohorn }i sw=2 v\IeC {\`a} \IeC {\dj }\IeC {\`\acircumflex }u v\IeC {\`a}o \IeC {\dj }\IeC {\ohorn }n bi\IeC {\'\ecircumflex }n\relax }}{48}{figure.caption.28}}
\newlabel{fig:uni}{{4.6}{48}{Kết quả dự đoán với sw=2 và đầu vào đơn biến\relax }{figure.caption.28}{}}
\bibstyle{plain}
\bibdata{reference}
\@writefile{toc}{\contentsline {chapter}{\numberline {5}K\IeC {\'\ecircumflex }t lu\IeC {\d \acircumflex }n v\IeC {\`a} h\IeC {\uhorn }\IeC {\'\ohorn }ng ph\IeC {\'a}t tri\IeC {\h \ecircumflex }n}{50}{chapter.5}}
\@writefile{lof}{\addvspace {10\p@ }}
\@writefile{lot}{\addvspace {10\p@ }}
\@writefile{loa}{\addvspace {10\p@ }}
\newlabel{sect:bib}{{5}{50}{Kết luận và hướng phát triển}{chapter.5}{}}
\bibcite{CHAKRABORTY1992961}{1}
\bibcite{Egrioglu200910589}{2}
\bibcite{lstm_model}{3}
\bibcite{Goodfellow-et-al-2016}{4}
\bibcite{Hochreiter:1997:LSM:1246443.1246450}{5}
\bibcite{KUMAR2018676}{6}
\bibcite{fuzzyorigin}{7}
\bibcite{7725658}{8}
\bibcite{TRAN2017365}{9}
\bibcite{915346}{10}
\bibcite{vazquez2015time}{11}
\bibcite{Yu:2004:EFS:1005332.1044700}{12}
